<?xml version="1.0" encoding="utf-8"?>
<!-- Generator: Adobe Illustrator 20.1.0, SVG Export Plug-In . SVG Version: 6.00 Build 0)  -->
<svg version="1.1" id="Layer_1" xmlns="http://www.w3.org/2000/svg" xmlns:xlink="http://www.w3.org/1999/xlink" x="0px" y="0px"
	 viewBox="0 0 55.1 60" style="enable-background:new 0 0 55.1 60;" xml:space="preserve">
<style type="text/css">
	.st0{fill:#064B59;}
</style>
<path class="st0" d="M55.1,51.9c-0.2-0.5-2.1-8.8-2.1-8.8c-1.3-2-13.1-6.4-13.1-6.4c-2.3-0.8-3-1.4-3-1.4s-0.8-2-1.1-3
	c-0.3-1-0.8-0.9-1.1-1.4c-0.3-0.5,0-2.6,0-3.7c0.1-1.2,0.8-1.9,1.1-2.5c0.3-0.6,1.1-3.2,1.1-3.2c0.5-1.6,1-2,1-2l0.3-4
	c-0.4-0.3-0.8-0.8-0.8-0.8l0-6.7c0-2-3.6-4.5-3.6-4.5c-2.1-1.4-2-2-2-2c0-0.4,0.7-1,0.7-1C33.3,0.1,33.1,0,33.1,0
	c-1.1-0.2-4.6,0-9.4,1.9C19,3.8,18,7.7,18,7.7l-0.1,6.8l-0.2,0.2C17.3,15,17,15.2,17,15.2c0,3.5,0.1,1.7,0.1,1.7
	c0.3,1.9,1.5,5.4,1.8,6.7c0.3,1.3,1.9,3.2,1.9,3.2s-0.4,3.8-0.5,4.1c0,0.3-0.2,0.3-0.6,0.5c-0.4,0.2-0.4,0.3-0.5,0.4
	c-0.2,0.1-0.7,2.2-1.1,3c-0.4,0.8-0.7,0.9-0.7,0.9c-8.7,3.1-15.4,7.4-15.4,7.4C1.5,45.6,0,51.8,0,51.8L0,52
	c4.7-0.6,12.2,3.5,12.2,3.5c6.7,4.1,13.2,4.5,13.2,4.5l0.1,0l-3.8-5.2l5.9-16.2l-1.8-3.9h3.7l-1.8,3.9l5.9,16.1l-3.6,5.1
	c2.8,0,16.9-5.8,16.9-5.8C50.2,52.5,55.1,51.9,55.1,51.9z"/>
</svg>
