<?xml version="1.0" encoding="utf-8"?>
<!-- Generator: Adobe Illustrator 19.1.0, SVG Export Plug-In . SVG Version: 6.00 Build 0)  -->
<svg version="1.1" id="Layer_1" xmlns="http://www.w3.org/2000/svg" xmlns:xlink="http://www.w3.org/1999/xlink" x="0px" y="0px"
	 viewBox="0 0 58.9 60" style="enable-background:new 0 0 58.9 60;" xml:space="preserve">
<style type="text/css">
	.st0{fill:#1EB9A5;}
</style>
<g>
	<path class="st0" d="M22.9,28.4l-1.1-3.3H55c0,0,4,1,4,4.5c0,3.5,0,25.8,0,25.8s-0.1,4.5-4,4.6l-35.7-0.1c0,0-1.1-0.4-1.1-1.4
		c0-0.9,1.2-1.8,1.2-1.8l35.3-0.1c0,0,1.1-0.1,1.1-1.7c0-1.6,0.1-24.9,0.1-24.9s0.3-1.8-1.4-1.8C52.6,28.4,22.9,28.4,22.9,28.4z"/>
	<path class="st0" d="M52.1,34.7c0,0.9-0.7,1.6-1.6,1.6H40.3c-0.9,0-1.6-0.7-1.6-1.6l0,0c0-0.9,0.7-1.6,1.6-1.6h10.2
		C51.4,33.1,52.1,33.9,52.1,34.7L52.1,34.7z"/>
	<path class="st0" d="M52.1,42.6c0,0.9-0.7,1.6-1.6,1.6H30.9c-0.9,0-1.6-0.7-1.6-1.6l0,0c0-0.9,0.7-1.6,1.6-1.6h19.5
		C51.4,41,52.1,41.7,52.1,42.6L52.1,42.6z"/>
	<path class="st0" d="M52.1,50.4c0,0.8-0.7,1.5-1.5,1.5h-18c-0.8,0-1.5-0.7-1.5-1.5l0,0c0-0.8,0.7-1.5,1.5-1.5h18
		C51.4,49,52.1,49.6,52.1,50.4L52.1,50.4z"/>
	<path class="st0" d="M23.8,52.1c0,0-1.2-0.7-1.6-1.2c-0.4-0.5-2.1-2.6-2.1-2.6s2,0.6,3.7-1.3c0,0,0.2,2.9,0.2,3.4
		C24,51,23.8,52.1,23.8,52.1z"/>
	<path class="st0" d="M8.9,27.5c0,0,6-1.3,8.8-3.6c0,0,6.9,17.1,7.2,18.3c0.3,1.3-1,3.6-2.3,4.4c-1.3,0.8-5.1,0.2-5.1,0.2
		s-3.7-6.8-4.2-8C12.8,37.7,8.9,27.5,8.9,27.5z"/>
	<path class="st0" d="M9.9,2.6C9.8,2.5,8.3-1,3.5,0.3c0,0-4.7,2.6-3.2,6.8L8,25.9c0,0,8.6-3.1,9.6-3.8C17.6,22.1,10,2.6,9.9,2.6z
		 M11.1,19.5c-0.8,0.3-1.7,0-2-0.8L4.1,5.9C3.8,5.1,4.2,4.3,5,4c0.8-0.3,1.7,0,2,0.8L12,17.6C12.3,18.3,11.9,19.2,11.1,19.5z"/>
</g>
</svg>
